{
  "name": "Attender",
  "base": "PersistedModel",
  "idInjection": true,
  "options": {
    "validateUpsert": true
  },
  "properties": {},
  "validations": [],
  "relations": {
    "diaLinkUser": {
      "type": "belongsTo",
      "model": "DiaLinkUser",
      "foreignKey": "userid"
    },
    "meeting": {
      "type": "belongsTo",
      "model": "Meeting",
      "foreignKey": "meetid"
    }
  },
  "acls": [],
  "methods": {}
}
