{
  "name": "Follow",
  "base": "PersistedModel",
  "idInjection": true,
  "options": {
    "validateUpsert": true
  },
  "properties": {
    "accepted": {
      "type": "boolean",
      "required": true,
      "default": false
    }
  },
  "validations": [],
  "relations": {
    "follower": {
      "type": "belongsTo",
      "model": "DiaLinkUser",
      "foreignKey": ""
    },
    "followee": {
      "type": "belongsTo",
      "model": "DiaLinkUser",
      "foreignKey": ""
    }
  },
  "acls": [],
  "methods": {}
}
