{
  "name": "Message",
  "base": "PersistedModel",
  "strict": false,
  "idInjection": false,
  "options": {
    "validateUpsert": true
  },
  "mixins": {
    "TimeStamp": true
  },
  "properties": {
    "title": {
      "type": "string",
      "required": true
    },
    "body": {
      "type": "string",
      "required": true
    },
    "viewed": {
      "type": "boolean",
      "required": true,
      "default": false
    },
    "from": {
      "type": "string",
      "required": true
    },
    "fromId": {
      "type": "string",
      "required": true
    }
  },
  "validations": [],
  "relations": {
    "diaLinkUser": {
      "type": "belongsTo",
      "model": "DiaLinkUser",
      "foreignKey": "userid"
    }
  },
  "acls": [
    {
      "accessType": "READ",
      "principalType": "ROLE",
      "principalId": "$owner",
      "permission": "ALLOW"
    }
  ],
  "methods": {}
}
