{
  "_meta": {
    "sources": [
      "loopback/common/models",
      "loopback/server/models",
      "../common/models",
      "./models"
    ],
    "mixins": [
      "../node_modules/loopback-ds-timestamp-mixin",
      "loopback/common/mixins",
      "loopback/server/mixins",
      "../common/mixins",
      "./mixins"
    ]
  },
  "User": {
    "dataSource": "mongodb"
  },
  "AccessToken": {
    "dataSource": "db",
    "public": false
  },
  "ACL": {
    "dataSource": "mongodb",
    "public": false
  },
  "RoleMapping": {
    "dataSource": "mongodb",
    "public": false
  },
  "Role": {
    "dataSource": "mongodb",
    "public": false
  },
  "DiaLinkUser": {
    "dataSource": "mongodb",
    "public": true,
    "$promise": {},
    "$resolved": true
  },
  "Message": {
    "dataSource": "mongodb",
    "public": false,
    "$promise": {},
    "$resolved": true
  },
  "CheckInRequests": {
    "dataSource": "mongodb",
    "public": true
  },
  "CheckInQuestion": {
    "dataSource": "mongodb",
    "public": true
  },
  "CheckInReport": {
    "dataSource": "mongodb",
    "public": false
  },
  "Answer": {
    "dataSource": "mongodb",
    "public": false
  },
  "ProfileContainer": {
    "dataSource": "storage",
    "public": true
  },
  "Meeting": {
    "dataSource": "mongodb",
    "public": true
  },
  "Attender": {
    "dataSource": "mongodb",
    "public": true
  },
  "Follow": {
    "dataSource": "mongodb",
    "public": true
  }
}
